<?xml version="1.0" encoding="UTF-8" standalone="no"?>
<!DOCTYPE svg PUBLIC "-//W3C//DTD SVG 1.1//EN"
 "http://www.w3.org/Graphics/SVG/1.1/DTD/svg11.dtd">
<!-- Generated by graphviz version 2.44.1 (20200629.0846)
 -->
<!-- Title: sequential container types Pages: 1 -->
<svg width="324pt" height="260pt"
 viewBox="0.00 0.00 324.00 260.00" xmlns="http://www.w3.org/2000/svg" xmlns:xlink="http://www.w3.org/1999/xlink">
<g id="graph0" class="graph" transform="scale(1 1) rotate(0) translate(4 256)">
<title>sequential container types</title>
<polygon fill="white" stroke="transparent" points="-4,4 -4,-256 320,-256 320,4 -4,4"/>
<!-- orderable_seq -->
<g id="node1" class="node">
<title>orderable_seq</title>
<polygon fill="none" stroke="black" points="88,-198 0,-198 0,-162 88,-162 88,-198"/>
<text text-anchor="middle" x="44" y="-176.3" font-family="Times,serif" font-size="14.00">有位置索引</text>
</g>
<!-- unorderable_seq -->
<g id="node2" class="node">
<title>unorderable_seq</title>
<polygon fill="none" stroke="black" points="88,-63 0,-63 0,-27 88,-27 88,-63"/>
<text text-anchor="middle" x="44" y="-41.3" font-family="Times,serif" font-size="14.00">无位置索引</text>
</g>
<!-- list -->
<g id="node3" class="node">
<title>list</title>
<polygon fill="none" stroke="black" points="178,-144 124,-144 124,-108 178,-108 178,-144"/>
<text text-anchor="middle" x="151" y="-122.3" font-family="Times,serif" font-size="14.00">list</text>
</g>
<!-- list&#45;&gt;orderable_seq -->
<g id="edge1" class="edge">
<title>list&#45;&gt;orderable_seq</title>
<path fill="none" stroke="Teal" d="M123.97,-139.39C113.45,-144.8 101.02,-151.19 89.16,-157.29"/>
<polygon fill="Teal" stroke="Teal" points="87.55,-154.18 80.26,-161.87 90.75,-160.41 87.55,-154.18"/>
</g>
<!-- changeable_seq -->
<g id="node8" class="node">
<title>changeable_seq</title>
<polygon fill="none" stroke="black" points="309,-90 221,-90 221,-54 309,-54 309,-90"/>
<text text-anchor="middle" x="265" y="-68.3" font-family="Times,serif" font-size="14.00">元素值可变</text>
</g>
<!-- list&#45;&gt;changeable_seq -->
<g id="edge6" class="edge">
<title>list&#45;&gt;changeable_seq</title>
<path fill="none" stroke="HotPink" d="M178.26,-113.34C189.92,-107.72 204.01,-100.92 217.36,-94.49"/>
<polygon fill="HotPink" stroke="HotPink" points="218.97,-97.6 226.45,-90.1 215.93,-91.29 218.97,-97.6"/>
</g>
<!-- tuple -->
<g id="node4" class="node">
<title>tuple</title>
<polygon fill="none" stroke="black" points="178,-252 124,-252 124,-216 178,-216 178,-252"/>
<text text-anchor="middle" x="151" y="-230.3" font-family="Times,serif" font-size="14.00">tuple</text>
</g>
<!-- tuple&#45;&gt;orderable_seq -->
<g id="edge2" class="edge">
<title>tuple&#45;&gt;orderable_seq</title>
<path fill="none" stroke="Teal" d="M123.97,-220.61C113.45,-215.2 101.02,-208.81 89.16,-202.71"/>
<polygon fill="Teal" stroke="Teal" points="90.75,-199.59 80.26,-198.13 87.55,-205.82 90.75,-199.59"/>
</g>
<!-- unchangeable_seq -->
<g id="node9" class="node">
<title>unchangeable_seq</title>
<polygon fill="none" stroke="black" points="316,-225 214,-225 214,-189 316,-189 316,-225"/>
<text text-anchor="middle" x="265" y="-203.3" font-family="Times,serif" font-size="14.00">元素值不可变</text>
</g>
<!-- tuple&#45;&gt;unchangeable_seq -->
<g id="edge9" class="edge">
<title>tuple&#45;&gt;unchangeable_seq</title>
<path fill="none" stroke="IndianRed" d="M178.26,-227.67C186.05,-225.79 194.91,-223.65 203.92,-221.48"/>
<polygon fill="IndianRed" stroke="IndianRed" points="204.81,-224.87 213.71,-219.12 203.17,-218.06 204.81,-224.87"/>
</g>
<!-- str -->
<g id="node5" class="node">
<title>str</title>
<polygon fill="none" stroke="black" points="178,-198 124,-198 124,-162 178,-162 178,-198"/>
<text text-anchor="middle" x="151" y="-176.3" font-family="Times,serif" font-size="14.00">str</text>
</g>
<!-- str&#45;&gt;orderable_seq -->
<g id="edge3" class="edge">
<title>str&#45;&gt;orderable_seq</title>
<path fill="none" stroke="Teal" d="M123.76,-180C115.91,-180 106.99,-180 98.05,-180"/>
<polygon fill="Teal" stroke="Teal" points="98.01,-176.5 88.01,-180 98.01,-183.5 98.01,-176.5"/>
</g>
<!-- str&#45;&gt;unchangeable_seq -->
<g id="edge10" class="edge">
<title>str&#45;&gt;unchangeable_seq</title>
<path fill="none" stroke="IndianRed" d="M178.26,-186.33C186.05,-188.21 194.91,-190.35 203.92,-192.52"/>
<polygon fill="IndianRed" stroke="IndianRed" points="203.17,-195.94 213.71,-194.88 204.81,-189.13 203.17,-195.94"/>
</g>
<!-- dict -->
<g id="node6" class="node">
<title>dict</title>
<polygon fill="none" stroke="black" points="178,-90 124,-90 124,-54 178,-54 178,-90"/>
<text text-anchor="middle" x="151" y="-68.3" font-family="Times,serif" font-size="14.00">dict</text>
</g>
<!-- dict&#45;&gt;unorderable_seq -->
<g id="edge4" class="edge">
<title>dict&#45;&gt;unorderable_seq</title>
<path fill="none" stroke="Cyan" d="M123.76,-65.25C115.82,-63.21 106.8,-60.89 97.77,-58.57"/>
<polygon fill="Cyan" stroke="Cyan" points="98.57,-55.16 88.01,-56.06 96.82,-61.94 98.57,-55.16"/>
</g>
<!-- dict&#45;&gt;changeable_seq -->
<g id="edge7" class="edge">
<title>dict&#45;&gt;changeable_seq</title>
<path fill="none" stroke="HotPink" d="M178.26,-72C187.96,-72 199.34,-72 210.58,-72"/>
<polygon fill="HotPink" stroke="HotPink" points="210.82,-75.5 220.82,-72 210.82,-68.5 210.82,-75.5"/>
</g>
<!-- set -->
<g id="node7" class="node">
<title>set</title>
<polygon fill="none" stroke="black" points="178,-36 124,-36 124,0 178,0 178,-36"/>
<text text-anchor="middle" x="151" y="-14.3" font-family="Times,serif" font-size="14.00">set</text>
</g>
<!-- set&#45;&gt;unorderable_seq -->
<g id="edge5" class="edge">
<title>set&#45;&gt;unorderable_seq</title>
<path fill="none" stroke="Cyan" d="M123.76,-24.75C115.82,-26.79 106.8,-29.11 97.77,-31.43"/>
<polygon fill="Cyan" stroke="Cyan" points="96.82,-28.06 88.01,-33.94 98.57,-34.84 96.82,-28.06"/>
</g>
<!-- set&#45;&gt;changeable_seq -->
<g id="edge8" class="edge">
<title>set&#45;&gt;changeable_seq</title>
<path fill="none" stroke="HotPink" d="M178.26,-30.66C189.92,-36.28 204.01,-43.08 217.36,-49.51"/>
<polygon fill="HotPink" stroke="HotPink" points="215.93,-52.71 226.45,-53.9 218.97,-46.4 215.93,-52.71"/>
</g>
</g>
</svg>
